RNASeq_gbpl3-5
…
for (i in seq_along(all.reslist)){
  
  reslist_tb[[i]] <- all.reslist[[i]] %>% 
    data.frame() %>%
    rownames_to_column(var="gene") %>% 
    as_tibble() %>%
    arrange(padj)
  }

names(reslist_tb) <- names(all.reslist)

reslist_tb

## $res_gbpl1
## # A tibble: 21,558 x 7
##    gene      baseMean log2FoldChange lfcSE  stat pvalue  padj
##    <chr>        <dbl>          <dbl> <dbl> <dbl>  <dbl> <dbl>
##  1 AT1G08140   12112.          -8.24 0.197 -41.8      0     0
##  2 AT1G34150   11028.           6.25 0.162  38.5      0     0
##  3 AT2G14288   17173.          -6.84 0.154 -44.3      0     0
##  4 AT3G27030    9062.           7.54 0.183  41.2      0     0
##  5 AT3G57270    8403.           7.31 0.186  39.3      0     0
##  6 AT4G25370   11535.           9.11 0.242  37.6      0     0
##  7 AT4G36900   35849.           6.85 0.140  48.8      0     0
##  8 AT4G38480    6290.           6.62 0.173  38.3      0     0
##  9 AT5G22720   26863.           8.17 0.166  49.2      0     0
## 10 AT5G35810   13154.           7.78 0.199  39.2      0     0
## # ... with 21,548 more rows
## 
## $res_gbpl3
## # A tibble: 21,558 x 7
##    gene      baseMean log2FoldChange lfcSE   stat   pvalue     padj
##    <chr>        <dbl>          <dbl> <dbl>  <dbl>    <dbl>    <dbl>
##  1 AT4G10180    238.          -3.51  0.270 -13.0  1.19e-38 2.57e-34
##  2 AT4G31408  14191.          -1.19  0.153  -7.82 5.34e-15 5.75e-11
##  3 AT1G53850     43.6         -2.60  0.425  -6.11 9.81e-10 7.05e- 6
##  4 AT4G21250     70.9          2.97  0.492   6.03 1.60e- 9 8.64e- 6
##  5 AT1G75200    490.          -1.18  0.210  -5.62 1.86e- 8 8.03e- 5
##  6 AT1G27100     21.3          8.33  1.52    5.46 4.70e- 8 1.69e- 4
##  7 AT3G61860   3813.          -0.847 0.161  -5.27 1.40e- 7 4.31e- 4
##  8 AT3G03010    207.         -11.8   2.30   -5.11 3.20e- 7 8.63e- 4
##  9 AT2G36230    137.          -1.47  0.295  -4.97 6.64e- 7 1.59e- 3
## 10 AT5G59430     47.3          2.44  0.516   4.72 2.40e- 6 5.18e- 3
## # ... with 21,548 more rows
## 
## $res_oex
## # A tibble: 21,558 x 7
##    gene      baseMean log2FoldChange lfcSE  stat pvalue  padj
##    <chr>        <dbl>          <dbl> <dbl> <dbl>  <dbl> <dbl>
##  1 AT1G08140   12112.          -6.91 0.173 -39.9      0     0
##  2 AT1G34150   11028.           6.20 0.162  38.2      0     0
##  3 AT2G14288   17173.          -6.03 0.147 -41.1      0     0
##  4 AT3G13222    3598.          -7.37 0.188 -39.2      0     0
##  5 AT3G27030    9062.           7.61 0.183  41.6      0     0
##  6 AT3G57270    8403.           7.20 0.186  38.7      0     0
##  7 AT4G36900   35849.           6.65 0.140  47.4      0     0
##  8 AT4G38480    6290.           6.55 0.173  37.9      0     0
##  9 AT5G22720   26863.           8.07 0.166  48.6      0     0
## 10 AT5G35810   13154.           7.55 0.199  38.0      0     0
## # ... with 21,548 more rows
## 
## $res_gbpl1.apeglm
## # A tibble: 21,558 x 6
##    gene      baseMean log2FoldChange lfcSE pvalue  padj
##    <chr>        <dbl>          <dbl> <dbl>  <dbl> <dbl>
##  1 AT1G08140   12112.          -8.23 0.197      0     0
##  2 AT1G34150   11028.           6.24 0.163      0     0
##  3 AT2G14288   17173.          -6.83 0.154      0     0
##  4 AT3G27030    9062.           7.54 0.183      0     0
##  5 AT3G57270    8403.           7.30 0.186      0     0
##  6 AT4G25370   11535.           9.10 0.242      0     0
##  7 AT4G36900   35849.           6.85 0.141      0     0
##  8 AT4G38480    6290.           6.61 0.173      0     0
##  9 AT5G22720   26863.           8.16 0.166      0     0
## 10 AT5G35810   13154.           7.78 0.199      0     0
## # ... with 21,548 more rows
## 
## $res_gbpl3.apeglm
## # A tibble: 21,558 x 6
##    gene      baseMean log2FoldChange   lfcSE   pvalue     padj
##    <chr>        <dbl>          <dbl>   <dbl>    <dbl>    <dbl>
##  1 AT4G10180    238.    -3.47        0.271   1.19e-38 2.57e-34
##  2 AT4G31408  14191.    -1.15        0.155   5.34e-15 5.75e-11
##  3 AT1G53850     43.6   -2.45        0.437   9.81e-10 7.05e- 6
##  4 AT4G21250     70.9    2.80        0.496   1.60e- 9 8.64e- 6
##  5 AT1G75200    490.    -1.10        0.218   1.86e- 8 8.03e- 5
##  6 AT1G27100     21.3    8.26        2.61    4.70e- 8 1.69e- 4
##  7 AT3G61860   3813.    -0.781       0.168   1.40e- 7 4.31e- 4
##  8 AT3G03010    207.    -0.000000935 0.00144 3.20e- 7 8.63e- 4
##  9 AT2G36230    137.    -1.33        0.310   6.64e- 7 1.59e- 3
## 10 AT5G59430     47.3    2.20        0.534   2.40e- 6 5.18e- 3
## # ... with 21,548 more rows
## 
## $res_oex.apeglm
## # A tibble: 21,558 x 6
##    gene      baseMean log2FoldChange lfcSE pvalue  padj
##    <chr>        <dbl>          <dbl> <dbl>  <dbl> <dbl>
##  1 AT1G08140   12112.          -6.90 0.174      0     0
##  2 AT1G34150   11028.           6.19 0.163      0     0
##  3 AT2G14288   17173.          -6.02 0.147      0     0
##  4 AT3G13222    3598.          -7.36 0.188      0     0
##  5 AT3G27030    9062.           7.60 0.183      0     0
##  6 AT3G57270    8403.           7.20 0.186      0     0
##  7 AT4G36900   35849.           6.65 0.141      0     0
##  8 AT4G38480    6290.           6.54 0.173      0     0
##  9 AT5G22720   26863.           8.06 0.166      0     0
## 10 AT5G35810   13154.           7.54 0.199      0     0
## # ... with 21,548 more rows
…
top20_genes_list <- lapply(siglist_tb, function(x) head(dplyr::pull(x, gene), n = 20))

# combine all top20s and make vector comprising all unique ones

top20_genes_allunique <- unique(unlist(top20_genes_list))

Using either the top20_genes_list, or the collapsed vector, top20_genes_allunique, we can extract the corresponding normalized counts for all samples from the normcounts_list, or from the combined normcounttable (normcounts_all). We’ll start with the latter and easier task, where we have one gene list to filter one normcount table only.

# all normcounts of all unique top20 genes

top20_normcounts <- normcounts_tb %>% filter(gene %in% top20_genes_allunique)

top20_normcounts

## # A tibble: 29 x 9
##    gene      wt_rep1 wt_rep2 gbpl.1_rep1 gbpl1.1_rep2 gbpl3.5_rep1 gbpl3.5_rep2 GBPL3.ox_rep1 GBPL3.ox_rep2
##    <chr>       <dbl>   <dbl>       <dbl>        <dbl>        <dbl>        <dbl>         <dbl>         <dbl>
##  1 AT1G08140 25764.  26554.       86.9           85.9      24783.       19183.         248.          187.  
##  2 AT1G10840   196.    141.    12458.         14056.         207.         158.       12845.        12936.  
##  3 AT1G27100     0       0         0.843          0           83.4         79.7          4.29          1.91
##  4 AT1G34150   298.    284.    19988.         24373.         239.         289.       21565.        21188.  
##  5 AT1G53850   114.    138.       19.4           29.4         22.9         19.0          2.15          4.45
##  6 AT1G75200   249.    228.     1266.          1556.         106.         104.         211.          195.  
##  7 AT2G10931    37.4    22.6   15292.         17893.          42.3         33.2      16799.        17020.  
##  8 AT2G14288 32397.  33757.      316.           260.       35941.       33699.         552.          462.  
##  9 AT2G36230   259.    186.       98.7          131.          74.3         86.4        160.          104.  
## 10 AT3G03010   985.    337.      298.            34.1          0            0            0             1.91
## # ... with 19 more rows
…
